{
    "href": "https://api.spotify.com/v1/me/albums?offset=0&limit=1",
    "items": [{
        "added_at": "2020-08-10T04:24:08Z",
        "album": {
            "album_type": "album",
            "artists": [{
                "external_urls": {
                    "spotify": "https://open.spotify.com/artist/1snhtMLeb2DYoMOcVbb8iB"
                },
                "href": "https://api.spotify.com/v1/artists/1snhtMLeb2DYoMOcVbb8iB",
                "id": "1snhtMLeb2DYoMOcVbb8iB",
                "name": "Kenshi Yonezu",
                "type": "artist",
                "uri": "spotify:artist:1snhtMLeb2DYoMOcVbb8iB"
            }],
            "available_markets": [],
            "copyrights": [{
                "text": "2020 Sony Music Labels Inc.",
                "type": "P"
            }],
            "external_ids": {
                "upc": "4547366465235"
            },
            "external_urls": {
                "spotify": "https://open.spotify.com/album/4DBYRaB42DDZjxyjOfTkzC"
            },
            "genres": [],
            "href": "https://api.spotify.com/v1/albums/4DBYRaB42DDZjxyjOfTkzC",
            "id": "4DBYRaB42DDZjxyjOfTkzC",
            "images": [{
                "height": 640,
                "url": "https://i.scdn.co/image/ab67616d0000b273efb3ecf27f710c9231f2346f",
                "width": 640
            }, {
                "height": 300,
                "url": "https://i.scdn.co/image/ab67616d00001e02efb3ecf27f710c9231f2346f",
                "width": 300
            }, {
                "height": 64,
                "url": "https://i.scdn.co/image/ab67616d00004851efb3ecf27f710c9231f2346f",
                "width": 64
            }],
            "label": "Sony Music Labels Inc.",
            "name": "STRAY SHEEP",
            "popularity": 2,
            "release_date": "2020-08-05",
            "release_date_precision": "day",
            "total_tracks": 15,
            "tracks": {
                "href": "https://api.spotify.com/v1/albums/4DBYRaB42DDZjxyjOfTkzC/tracks?offset=0&limit=50",
                "items": [{
                    "artists": [{
                        "external_urls": {
                            "spotify": "https://open.spotify.com/artist/1snhtMLeb2DYoMOcVbb8iB"
                        },
                        "href": "https://api.spotify.com/v1/artists/1snhtMLeb2DYoMOcVbb8iB",
                        "id": "1snhtMLeb2DYoMOcVbb8iB",
                        "name": "Kenshi Yonezu",
                        "type": "artist",
                        "uri": "spotify:artist:1snhtMLeb2DYoMOcVbb8iB"
                    }],
                    "available_markets": [],
                    "disc_number": 1,
                    "duration_ms": 235720,
                    "explicit": false,
                    "external_urls": {
                        "spotify": "https://open.spotify.com/track/2CfmdzJdjTFwajD0Y4XzdN"
                    },
                    "href": "https://api.spotify.com/v1/tracks/2CfmdzJdjTFwajD0Y4XzdN",
                    "id": "2CfmdzJdjTFwajD0Y4XzdN",
                    "is_local": false,
                    "name": "カムパネルラ",
                    "preview_url": null,
                    "track_number": 1,
                    "type": "track",
                    "uri": "spotify:track:2CfmdzJdjTFwajD0Y4XzdN"
                }, {
                    "artists": [{
                        "external_urls": {
                            "spotify": "https://open.spotify.com/artist/1snhtMLeb2DYoMOcVbb8iB"
                        },
                        "href": "https://api.spotify.com/v1/artists/1snhtMLeb2DYoMOcVbb8iB",
                        "id": "1snhtMLeb2DYoMOcVbb8iB",
                        "name": "Kenshi Yonezu",
                        "type": "artist",
                        "uri": "spotify:artist:1snhtMLeb2DYoMOcVbb8iB"
                    }],
                    "available_markets": [],
                    "disc_number": 1,
                    "duration_ms": 196386,
                    "explicit": false,
                    "external_urls": {
                        "spotify": "https://open.spotify.com/track/6tdkyZ6IGdDliwhApub0HI"
                    },
                    "href": "https://api.spotify.com/v1/tracks/6tdkyZ6IGdDliwhApub0HI",
                    "id": "6tdkyZ6IGdDliwhApub0HI",
                    "is_local": false,
                    "name": "Flamingo",
                    "preview_url": null,
                    "track_number": 2,
                    "type": "track",
                    "uri": "spotify:track:6tdkyZ6IGdDliwhApub0HI"
                }, {
                    "artists": [{
                        "external_urls": {
                            "spotify": "https://open.spotify.com/artist/1snhtMLeb2DYoMOcVbb8iB"
                        },
                        "href": "https://api.spotify.com/v1/artists/1snhtMLeb2DYoMOcVbb8iB",
                        "id": "1snhtMLeb2DYoMOcVbb8iB",
                        "name": "Kenshi Yonezu",
                        "type": "artist",
                        "uri": "spotify:artist:1snhtMLeb2DYoMOcVbb8iB"
                    }],
                    "available_markets": [],
                    "disc_number": 1,
                    "duration_ms": 264533,
                    "explicit": false,
                    "external_urls": {
                        "spotify": "https://open.spotify.com/track/6n6dWS9oA9ImlFnXuWTXOC"
                    },
                    "href": "https://api.spotify.com/v1/tracks/6n6dWS9oA9ImlFnXuWTXOC",
                    "id": "6n6dWS9oA9ImlFnXuWTXOC",
                    "is_local": false,
                    "name": "感電",
                    "preview_url": null,
                    "track_number": 3,
                    "type": "track",
                    "uri": "spotify:track:6n6dWS9oA9ImlFnXuWTXOC"
                }, {
                    "artists": [{
                        "external_urls": {
                            "spotify": "https://open.spotify.com/artist/1snhtMLeb2DYoMOcVbb8iB"
                        },
                        "href": "https://api.spotify.com/v1/artists/1snhtMLeb2DYoMOcVbb8iB",
                        "id": "1snhtMLeb2DYoMOcVbb8iB",
                        "name": "Kenshi Yonezu",
                        "type": "artist",
                        "uri": "spotify:artist:1snhtMLeb2DYoMOcVbb8iB"
                    }, {
                        "external_urls": {
                            "spotify": "https://open.spotify.com/artist/1HAuPdrX1EKL7rtAdb1ZQY"
                        },
                        "href": "https://api.spotify.com/v1/artists/1HAuPdrX1EKL7rtAdb1ZQY",
                        "id": "1HAuPdrX1EKL7rtAdb1ZQY",
                        "name": "Yojiro Noda",
                        "type": "artist",
                        "uri": "spotify:artist:1HAuPdrX1EKL7rtAdb1ZQY"
                    }],
                    "available_markets": [],
                    "disc_number": 1,
                    "duration_ms": 240253,
                    "explicit": false,
                    "external_urls": {
                        "spotify": "https://open.spotify.com/track/49nwbMrOB3fhDPp0MiPeb3"
                    },
                    "href": "https://api.spotify.com/v1/tracks/49nwbMrOB3fhDPp0MiPeb3",
                    "id": "49nwbMrOB3fhDPp0MiPeb3",
                    "is_local": false,
                    "name": "PLACEBO + 野田洋次郎",
                    "preview_url": null,
                    "track_number": 4,
                    "type": "track",
                    "uri": "spotify:track:49nwbMrOB3fhDPp0MiPeb3"
                }, {
                    "artists": [{
                        "external_urls": {
                            "spotify": "https://open.spotify.com/artist/1snhtMLeb2DYoMOcVbb8iB"
                        },
                        "href": "https://api.spotify.com/v1/artists/1snhtMLeb2DYoMOcVbb8iB",
                        "id": "1snhtMLeb2DYoMOcVbb8iB",
                        "name": "Kenshi Yonezu",
                        "type": "artist",
                        "uri": "spotify:artist:1snhtMLeb2DYoMOcVbb8iB"
                    }],
                    "available_markets": [],
                    "disc_number": 1,
                    "duration_ms": 202666,
                    "explicit": false,
                    "external_urls": {
                        "spotify": "https://open.spotify.com/track/5mBpvyH1dmTxq42kdSIa7R"
                    },
                    "href": "https://api.spotify.com/v1/tracks/5mBpvyH1dmTxq42kdSIa7R",
                    "id": "5mBpvyH1dmTxq42kdSIa7R",
                    "is_local": false,
                    "name": "パプリカ",
                    "preview_url": null,
                    "track_number": 5,
                    "type": "track",
                    "uri": "spotify:track:5mBpvyH1dmTxq42kdSIa7R"
                }, {
                    "artists": [{
                        "external_urls": {
                            "spotify": "https://open.spotify.com/artist/1snhtMLeb2DYoMOcVbb8iB"
                        },
                        "href": "https://api.spotify.com/v1/artists/1snhtMLeb2DYoMOcVbb8iB",
                        "id": "1snhtMLeb2DYoMOcVbb8iB",
                        "name": "Kenshi Yonezu",
                        "type": "artist",
                        "uri": "spotify:artist:1snhtMLeb2DYoMOcVbb8iB"
                    }],
                    "available_markets": [],
                    "disc_number": 1,
                    "duration_ms": 265333,
                    "explicit": false,
                    "external_urls": {
                        "spotify": "https://open.spotify.com/track/3sQzpltIuxUYr5tpO2STuN"
                    },
                    "href": "https://api.spotify.com/v1/tracks/3sQzpltIuxUYr5tpO2STuN",
                    "id": "3sQzpltIuxUYr5tpO2STuN",
                    "is_local": false,
                    "name": "馬と鹿",
                    "preview_url": null,
                    "track_number": 6,
                    "type": "track",
                    "uri": "spotify:track:3sQzpltIuxUYr5tpO2STuN"
                }, {
                    "artists": [{
                        "external_urls": {
                            "spotify": "https://open.spotify.com/artist/1snhtMLeb2DYoMOcVbb8iB"
                        },
                        "href": "https://api.spotify.com/v1/artists/1snhtMLeb2DYoMOcVbb8iB",
                        "id": "1snhtMLeb2DYoMOcVbb8iB",
                        "name": "Kenshi Yonezu",
                        "type": "artist",
                        "uri": "spotify:artist:1snhtMLeb2DYoMOcVbb8iB"
                    }],
                    "available_markets": [],
                    "disc_number": 1,
                    "duration_ms": 208853,
                    "explicit": false,
                    "external_urls": {
                        "spotify": "https://open.spotify.com/track/6dz6P0Z9BhROw9dE9jJBab"
                    },
                    "href": "https://api.spotify.com/v1/tracks/6dz6P0Z9BhROw9dE9jJBab",
                    "id": "6dz6P0Z9BhROw9dE9jJBab",
                    "is_local": false,
                    "name": "優しい人",
                    "preview_url": null,
                    "track_number": 7,
                    "type": "track",
                    "uri": "spotify:track:6dz6P0Z9BhROw9dE9jJBab"
                }, {
                    "artists": [{
                        "external_urls": {
                            "spotify": "https://open.spotify.com/artist/1snhtMLeb2DYoMOcVbb8iB"
                        },
                        "href": "https://api.spotify.com/v1/artists/1snhtMLeb2DYoMOcVbb8iB",
                        "id": "1snhtMLeb2DYoMOcVbb8iB",
                        "name": "Kenshi Yonezu",
                        "type": "artist",
                        "uri": "spotify:artist:1snhtMLeb2DYoMOcVbb8iB"
                    }],
                    "available_markets": [],
                    "disc_number": 1,
                    "duration_ms": 255826,
                    "explicit": false,
                    "external_urls": {
                        "spotify": "https://open.spotify.com/track/3v3FtJPI0TSSzBxNz2pHD6"
                    },
                    "href": "https://api.spotify.com/v1/tracks/3v3FtJPI0TSSzBxNz2pHD6",
                    "id": "3v3FtJPI0TSSzBxNz2pHD6",
                    "is_local": false,
                    "name": "Lemon",
                    "preview_url": null,
                    "track_number": 8,
                    "type": "track",
                    "uri": "spotify:track:3v3FtJPI0TSSzBxNz2pHD6"
                }, {
                    "artists": [{
                        "external_urls": {
                            "spotify": "https://open.spotify.com/artist/1snhtMLeb2DYoMOcVbb8iB"
                        },
                        "href": "https://api.spotify.com/v1/artists/1snhtMLeb2DYoMOcVbb8iB",
                        "id": "1snhtMLeb2DYoMOcVbb8iB",
                        "name": "Kenshi Yonezu",
                        "type": "artist",
                        "uri": "spotify:artist:1snhtMLeb2DYoMOcVbb8iB"
                    }],
                    "available_markets": [],
                    "disc_number": 1,
                    "duration_ms": 267453,
                    "explicit": false,
                    "external_urls": {
                        "spotify": "https://open.spotify.com/track/7dJGnw5vEZ3bGWbtt0NaD8"
                    },
                    "href": "https://api.spotify.com/v1/tracks/7dJGnw5vEZ3bGWbtt0NaD8",
                    "id": "7dJGnw5vEZ3bGWbtt0NaD8",
                    "is_local": false,
                    "name": "まちがいさがし",
                    "preview_url": null,
                    "track_number": 9,
                    "type": "track",
                    "uri": "spotify:track:7dJGnw5vEZ3bGWbtt0NaD8"
                }, {
                    "artists": [{
                        "external_urls": {
                            "spotify": "https://open.spotify.com/artist/1snhtMLeb2DYoMOcVbb8iB"
                        },
                        "href": "https://api.spotify.com/v1/artists/1snhtMLeb2DYoMOcVbb8iB",
                        "id": "1snhtMLeb2DYoMOcVbb8iB",
                        "name": "Kenshi Yonezu",
                        "type": "artist",
                        "uri": "spotify:artist:1snhtMLeb2DYoMOcVbb8iB"
                    }],
                    "available_markets": [],
                    "disc_number": 1,
                    "duration_ms": 242026,
                    "explicit": false,
                    "external_urls": {
                        "spotify": "https://open.spotify.com/track/1KVrPSuCfI20eJ9CYAgwi4"
                    },
                    "href": "https://api.spotify.com/v1/tracks/1KVrPSuCfI20eJ9CYAgwi4",
                    "id": "1KVrPSuCfI20eJ9CYAgwi4",
                    "is_local": false,
                    "name": "ひまわり",
                    "preview_url": null,
                    "track_number": 10,
                    "type": "track",
                    "uri": "spotify:track:1KVrPSuCfI20eJ9CYAgwi4"
                }, {
                    "artists": [{
                        "external_urls": {
                            "spotify": "https://open.spotify.com/artist/1snhtMLeb2DYoMOcVbb8iB"
                        },
                        "href": "https://api.spotify.com/v1/artists/1snhtMLeb2DYoMOcVbb8iB",
                        "id": "1snhtMLeb2DYoMOcVbb8iB",
                        "name": "Kenshi Yonezu",
                        "type": "artist",
                        "uri": "spotify:artist:1snhtMLeb2DYoMOcVbb8iB"
                    }],
                    "available_markets": [],
                    "disc_number": 1,
                    "duration_ms": 226733,
                    "explicit": false,
                    "external_urls": {
                        "spotify": "https://open.spotify.com/track/4nnBiLysldFNdvwiDIcRVR"
                    },
                    "href": "https://api.spotify.com/v1/tracks/4nnBiLysldFNdvwiDIcRVR",
                    "id": "4nnBiLysldFNdvwiDIcRVR",
                    "is_local": false,
                    "name": "迷える羊",
                    "preview_url": null,
                    "track_number": 11,
                    "type": "track",
                    "uri": "spotify:track:4nnBiLysldFNdvwiDIcRVR"
                }, {
                    "artists": [{
                        "external_urls": {
                            "spotify": "https://open.spotify.com/artist/1snhtMLeb2DYoMOcVbb8iB"
                        },
                        "href": "https://api.spotify.com/v1/artists/1snhtMLeb2DYoMOcVbb8iB",
                        "id": "1snhtMLeb2DYoMOcVbb8iB",
                        "name": "Kenshi Yonezu",
                        "type": "artist",
                        "uri": "spotify:artist:1snhtMLeb2DYoMOcVbb8iB"
                    }],
                    "available_markets": [],
                    "disc_number": 1,
                    "duration_ms": 209573,
                    "explicit": false,
                    "external_urls": {
                        "spotify": "https://open.spotify.com/track/6yDSklr76uHzhyS2Jw442u"
                    },
                    "href": "https://api.spotify.com/v1/tracks/6yDSklr76uHzhyS2Jw442u",
                    "id": "6yDSklr76uHzhyS2Jw442u",
                    "is_local": false,
                    "name": "Decollete (正式名称はDecolleteの1つ目と3つ目の「e」にアキュートアクセント付き)",
                    "preview_url": null,
                    "track_number": 12,
                    "type": "track",
                    "uri": "spotify:track:6yDSklr76uHzhyS2Jw442u"
                }, {
                    "artists": [{
                        "external_urls": {
                            "spotify": "https://open.spotify.com/artist/1snhtMLeb2DYoMOcVbb8iB"
                        },
                        "href": "https://api.spotify.com/v1/artists/1snhtMLeb2DYoMOcVbb8iB",
                        "id": "1snhtMLeb2DYoMOcVbb8iB",
                        "name": "Kenshi Yonezu",
                        "type": "artist",
                        "uri": "spotify:artist:1snhtMLeb2DYoMOcVbb8iB"
                    }],
                    "available_markets": [],
                    "disc_number": 1,
                    "duration_ms": 225213,
                    "explicit": false,
                    "external_urls": {
                        "spotify": "https://open.spotify.com/track/6cD2e63vpaykcU1aFS0z8e"
                    },
                    "href": "https://api.spotify.com/v1/tracks/6cD2e63vpaykcU1aFS0z8e",
                    "id": "6cD2e63vpaykcU1aFS0z8e",
                    "is_local": false,
                    "name": "TEENAGE RIOT",
                    "preview_url": null,
                    "track_number": 13,
                    "type": "track",
                    "uri": "spotify:track:6cD2e63vpaykcU1aFS0z8e"
                }, {
                    "artists": [{
                        "external_urls": {
                            "spotify": "https://open.spotify.com/artist/1snhtMLeb2DYoMOcVbb8iB"
                        },
                        "href": "https://api.spotify.com/v1/artists/1snhtMLeb2DYoMOcVbb8iB",
                        "id": "1snhtMLeb2DYoMOcVbb8iB",
                        "name": "Kenshi Yonezu",
                        "type": "artist",
                        "uri": "spotify:artist:1snhtMLeb2DYoMOcVbb8iB"
                    }],
                    "available_markets": [],
                    "disc_number": 1,
                    "duration_ms": 234466,
                    "explicit": false,
                    "external_urls": {
                        "spotify": "https://open.spotify.com/track/2Q9BmV3BauyeofSduYLmXT"
                    },
                    "href": "https://api.spotify.com/v1/tracks/2Q9BmV3BauyeofSduYLmXT",
                    "id": "2Q9BmV3BauyeofSduYLmXT",
                    "is_local": false,
                    "name": "海の幽霊",
                    "preview_url": null,
                    "track_number": 14,
                    "type": "track",
                    "uri": "spotify:track:2Q9BmV3BauyeofSduYLmXT"
                }, {
                    "artists": [{
                        "external_urls": {
                            "spotify": "https://open.spotify.com/artist/1snhtMLeb2DYoMOcVbb8iB"
                        },
                        "href": "https://api.spotify.com/v1/artists/1snhtMLeb2DYoMOcVbb8iB",
                        "id": "1snhtMLeb2DYoMOcVbb8iB",
                        "name": "Kenshi Yonezu",
                        "type": "artist",
                        "uri": "spotify:artist:1snhtMLeb2DYoMOcVbb8iB"
                    }],
                    "available_markets": [],
                    "disc_number": 1,
                    "duration_ms": 298373,
                    "explicit": false,
                    "external_urls": {
                        "spotify": "https://open.spotify.com/track/0Ov0yiGgFzKSokjDi8jTUE"
                    },
                    "href": "https://api.spotify.com/v1/tracks/0Ov0yiGgFzKSokjDi8jTUE",
                    "id": "0Ov0yiGgFzKSokjDi8jTUE",
                    "is_local": false,
                    "name": "カナリヤ",
                    "preview_url": null,
                    "track_number": 15,
                    "type": "track",
                    "uri": "spotify:track:0Ov0yiGgFzKSokjDi8jTUE"
                }],
                "limit": 50,
                "next": null,
                "offset": 0,
                "previous": null,
                "total": 15
            },
            "type": "album",
            "uri": "spotify:album:4DBYRaB42DDZjxyjOfTkzC"
        }
    }],
    "limit": 1,
    "next": "https://api.spotify.com/v1/me/albums?offset=1&limit=1",
    "offset": 0,
    "previous": null,
    "total": 63
}