{
    "artists": {
        "items": [{
            "external_urls": {
                "spotify": "https://open.spotify.com/artist/00DuPiLri3mNomvvM3nZvU"
            },
            "followers": {
                "href": null,
                "total": 180284
            },
            "genres": ["j-rock", "japanese emo", "japanese math rock", "japanese post-hardcore"],
            "href": "https://api.spotify.com/v1/artists/00DuPiLri3mNomvvM3nZvU",
            "id": "00DuPiLri3mNomvvM3nZvU",
            "images": [{
                "height": 640,
                "url": "https://i.scdn.co/image/ab6761610000e5ebeb5c128816767d1fee841e1c",
                "width": 640
            }, {
                "height": 320,
                "url": "https://i.scdn.co/image/ab67616100005174eb5c128816767d1fee841e1c",
                "width": 320
            }, {
                "height": 160,
                "url": "https://i.scdn.co/image/ab6761610000f178eb5c128816767d1fee841e1c",
                "width": 160
            }],
            "name": "Ling tosite sigure",
            "popularity": 48,
            "type": "artist",
            "uri": "spotify:artist:00DuPiLri3mNomvvM3nZvU"
        }],
        "next": "https://api.spotify.com/v1/me/following?type=artist&after=00DuPiLri3mNomvvM3nZvU&limit=1",
        "total": 20,
        "cursors": {
            "after": "00DuPiLri3mNomvvM3nZvU"
        },
        "limit": 1,
        "href": "https://api.spotify.com/v1/me/following?type=artist&limit=1"
    }
}