{
    "href": "https://api.spotify.com/v1/me/tracks?offset=0&limit=1",
    "items": [{
        "added_at": "2021-12-15T21:04:40Z",
        "track": {
            "album": {
                "album_type": "album",
                "artists": [{
                    "external_urls": {
                        "spotify": "https://open.spotify.com/artist/1URnnhqYAYcrqrcwql10ft"
                    },
                    "href": "https://api.spotify.com/v1/artists/1URnnhqYAYcrqrcwql10ft",
                    "id": "1URnnhqYAYcrqrcwql10ft",
                    "name": "21 Savage",
                    "type": "artist",
                    "uri": "spotify:artist:1URnnhqYAYcrqrcwql10ft"
                }],
                "available_markets": ["AD", "AE", "AG", "AL", "AM", "AO", "AR", "AT", "AU", "AZ", "BA", "BB", "BD", "BE", "BF", "BG", "BH", "BI", "BJ", "BN", "BO", "BR", "BS", "BT", "BW", "BY", "BZ", "CA", "CD", "CG", "CH", "CI", "CL", "CM", "CO", "CR", "CV", "CW", "CY", "CZ", "DE", "DJ", "DK", "DM", "DO", "DZ", "EC", "EE", "EG", "ES", "FI", "FJ", "FM", "FR", "GA", "GB", "GD", "GE", "GH", "GM", "GN", "GQ", "GR", "GT", "GW", "GY", "HK", "HN", "HR", "HT", "HU", "ID", "IE", "IL", "IN", "IQ", "IS", "IT", "JM", "JO", "JP", "KE", "KG", "KH", "KI", "KM", "KN", "KR", "KW", "KZ", "LA", "LB", "LC", "LI", "LK", "LR", "LS", "LT", "LU", "LV", "LY", "MA", "MC", "MD", "ME", "MG", "MH", "MK", "ML", "MN", "MO", "MR", "MT", "MU", "MV", "MW", "MX", "MY", "MZ", "NA", "NE", "NG", "NI", "NL", "NO", "NP", "NR", "NZ", "OM", "PA", "PE", "PG", "PH", "PK", "PL", "PS", "PT", "PW", "PY", "QA", "RO", "RS", "RU", "RW", "SA", "SB", "SC", "SE", "SG", "SI", "SK", "SL", "SM", "SN", "SR", "ST", "SV", "SZ", "TD", "TG", "TH", "TJ", "TL", "TN", "TO", "TR", "TT", "TV", "TW", "TZ", "UA", "UG", "US", "UY", "UZ", "VC", "VE", "VN", "VU", "WS", "XK", "ZA", "ZM", "ZW"],
                "external_urls": {
                    "spotify": "https://open.spotify.com/album/6guJZpZ52v4MrJKIH7tASl"
                },
                "href": "https://api.spotify.com/v1/albums/6guJZpZ52v4MrJKIH7tASl",
                "id": "6guJZpZ52v4MrJKIH7tASl",
                "images": [{
                    "height": 640,
                    "url": "https://i.scdn.co/image/ab67616d0000b273ca29f023b5d11f85de854f1b",
                    "width": 640
                }, {
                    "height": 300,
                    "url": "https://i.scdn.co/image/ab67616d00001e02ca29f023b5d11f85de854f1b",
                    "width": 300
                }, {
                    "height": 64,
                    "url": "https://i.scdn.co/image/ab67616d00004851ca29f023b5d11f85de854f1b",
                    "width": 64
                }],
                "name": "i am > i was (Deluxe)",
                "release_date": "2018-12-24",
                "release_date_precision": "day",
                "total_tracks": 16,
                "type": "album",
                "uri": "spotify:album:6guJZpZ52v4MrJKIH7tASl"
            },
            "artists": [{
                "external_urls": {
                    "spotify": "https://open.spotify.com/artist/1URnnhqYAYcrqrcwql10ft"
                },
                "href": "https://api.spotify.com/v1/artists/1URnnhqYAYcrqrcwql10ft",
                "id": "1URnnhqYAYcrqrcwql10ft",
                "name": "21 Savage",
                "type": "artist",
                "uri": "spotify:artist:1URnnhqYAYcrqrcwql10ft"
            }],
            "available_markets": ["AD", "AE", "AG", "AL", "AM", "AO", "AR", "AT", "AU", "AZ", "BA", "BB", "BD", "BE", "BF", "BG", "BH", "BI", "BJ", "BN", "BO", "BR", "BS", "BT", "BW", "BY", "BZ", "CA", "CD", "CG", "CH", "CI", "CL", "CM", "CO", "CR", "CV", "CW", "CY", "CZ", "DE", "DJ", "DK", "DM", "DO", "DZ", "EC", "EE", "EG", "ES", "FI", "FJ", "FM", "FR", "GA", "GB", "GD", "GE", "GH", "GM", "GN", "GQ", "GR", "GT", "GW", "GY", "HK", "HN", "HR", "HT", "HU", "ID", "IE", "IL", "IN", "IQ", "IS", "IT", "JM", "JO", "JP", "KE", "KG", "KH", "KI", "KM", "KN", "KR", "KW", "KZ", "LA", "LB", "LC", "LI", "LK", "LR", "LS", "LT", "LU", "LV", "LY", "MA", "MC", "MD", "ME", "MG", "MH", "MK", "ML", "MN", "MO", "MR", "MT", "MU", "MV", "MW", "MX", "MY", "MZ", "NA", "NE", "NG", "NI", "NL", "NO", "NP", "NR", "NZ", "OM", "PA", "PE", "PG", "PH", "PK", "PL", "PS", "PT", "PW", "PY", "QA", "RO", "RS", "RU", "RW", "SA", "SB", "SC", "SE", "SG", "SI", "SK", "SL", "SM", "SN", "SR", "ST", "SV", "SZ", "TD", "TG", "TH", "TJ", "TL", "TN", "TO", "TR", "TT", "TV", "TW", "TZ", "UA", "UG", "US", "UY", "UZ", "VC", "VE", "VN", "VU", "WS", "XK", "ZA", "ZM", "ZW"],
            "disc_number": 1,
            "duration_ms": 288364,
            "explicit": true,
            "external_ids": {
                "isrc": "QZ45A1700129"
            },
            "external_urls": {
                "spotify": "https://open.spotify.com/track/41EKwqBy5rPsjxIWXAkobc"
            },
            "href": "https://api.spotify.com/v1/tracks/41EKwqBy5rPsjxIWXAkobc",
            "id": "41EKwqBy5rPsjxIWXAkobc",
            "is_local": false,
            "name": "4L",
            "popularity": 52,
            "preview_url": "https://p.scdn.co/mp3-preview/15819c80cea1ffaf236b161d2970255831fd3cfb?cid=774b29d4f13844c495f206cafdad9c86",
            "track_number": 15,
            "type": "track",
            "uri": "spotify:track:41EKwqBy5rPsjxIWXAkobc"
        }
    }],
    "limit": 1,
    "next": "https://api.spotify.com/v1/me/tracks?offset=1&limit=1",
    "offset": 0,
    "previous": null,
    "total": 944
}